{"hash":"3e2c823ec942c27b47e770b30b39a545c55f16aa","data":{"tag":{"title":"frontend","belongsTo":{"totalCount":4,"pageInfo":{"totalPages":2,"currentPage":2},"edges":[{"node":{"title":"How to Get Better At Coding","timeToRead":2,"date":"April 5, 2019","path":"/how-to-get-better-at-coding","summary":"Lorem ipsum dolor sit amet consectetur adipisicing elit. Hic rerum earum quos explicabo suscipit maxime iste qui nihil. Reiciendis asperiores minus necessitatibus","tags":[{"title":"coding"},{"title":"frontend"},{"title":"backend"}]}}]}}},"context":{}}