{"hash":"c5d9dc16a03ec0d8de53ba9ed48e0de7883a9b35","data":{"tag":{"title":"coding","belongsTo":{"totalCount":4,"pageInfo":{"totalPages":2,"currentPage":2},"edges":[{"node":{"title":"How to Get Better At Coding","timeToRead":2,"date":"April 5, 2019","path":"/how-to-get-better-at-coding","summary":"Lorem ipsum dolor sit amet consectetur adipisicing elit. Hic rerum earum quos explicabo suscipit maxime iste qui nihil. Reiciendis asperiores minus necessitatibus","tags":[{"title":"coding"},{"title":"frontend"},{"title":"backend"}]}}]}}},"context":{}}