{"hash":"c5d9dc16a03ec0d8de53ba9ed48e0de7883a9b35","data":{"posts":{"totalCount":4,"pageInfo":{"totalPages":2,"currentPage":2},"edges":[{"node":{"id":"a4a5e6b2ec630e3ab4e49487b3cbcfc2","title":"How to Get Better At Coding","date":"April 5, 2019","summary":"Lorem ipsum dolor sit amet consectetur adipisicing elit. Hic rerum earum quos explicabo suscipit maxime iste qui nihil. Reiciendis asperiores minus necessitatibus","timeToRead":2,"path":"/how-to-get-better-at-coding"}}]}},"context":{}}