{"hash":"c5d9dc16a03ec0d8de53ba9ed48e0de7883a9b35","data":{"posts":{"totalCount":4,"pageInfo":{"totalPages":2,"currentPage":1},"edges":[{"node":{"id":"67c9012e38724f11a53795db4941d616","title":"5 nifty VScode shortcuts I use regularly","date":"August 12, 2020","summary":"Here are my 5 favourite VScode shortcuts I use on a regular basis. Hope it helps you optimise your coding workflow.","timeToRead":1,"path":"/top-5-static-site-generators-in-vue"}},{"node":{"id":"523cfe66b0a37279b6848ea99b842ad4","title":"Introduction to tailwind","date":"April 8, 2020","summary":"Gridsome is a Vue.js-powered, modern site generator for building the fastest possible websites for any Headless CMS, APIs or Markdown-files. Gridsome makes it easy and fun for developers to create fast, beautiful websites without needing to become a performance expert.","timeToRead":1,"path":"/introduction-to-tailwind"}},{"node":{"id":"9e70cfb46da7ef1c03cf301eaec915a7","title":"Introduction to Gridsome","date":"April 8, 2019","summary":"Gridsome is a Vue.js-powered, modern site generator for building the fastest possible websites for any Headless CMS, APIs or Markdown-files. Gridsome makes it easy and fun for developers to create fast, beautiful websites without needing to become a performance expert.","timeToRead":1,"path":"/introduction-to-gridsome"}}]}},"context":{}}